Assess Study Cohorts Using a Common Data Model • PhenotypeR
…
# See all the results generated:
result |> 
  settings() |>
  select("result_type")
#> # A tibble: 48 × 1
#>    result_type                 
#>    <chr>                       
#>  1 summarise_omop_snapshot     
#>  2 summarise_observation_period
#>  3 cohort_code_use             
#>  4 achilles_code_use           
#>  5 orphan_code_use             
#>  6 summarise_characteristics   
#>  7 summarise_table             
#>  8 summarise_cohort_attrition  
#>  9 summarise_cohort_attrition  
#> 10 summarise_cohort_overlap    
#> # ℹ 38 more rows
…
