…
con <- DBI::dbConnect(duckdb::duckdb(dbdir = CDMConnector::eunomia_dir()))
cdm <- CDMConnector::cdm_from_con(con = con,
                      cdm_schema = "main",
                      write_schema = "main")

cdm$gibleed <- conceptCohort(cdm = cdm,
                                   conceptSet = list(gibleed = 192671L),
                                   name = "gibleed")

result <- cdm$gibleed |>
   phenotypeCohort()

result
#> # A tibble: 180 × 13
#>    result_id cdm_name            group_name group_level strata_name strata_level
#>        <int> <chr>               <chr>      <chr>       <chr>       <chr>       
#>  1         1 Synthea synthetic … overall    overall     overall     overall     
#>  2         1 Synthea synthetic … overall    overall     overall     overall     
#>  3         1 Synthea synthetic … overall    overall     overall     overall     
#>  4         1 Synthea synthetic … overall    overall     overall     overall     
#>  5         1 Synthea synthetic … overall    overall     overall     overall     
#>  6         1 Synthea synthetic … overall    overall     overall     overall     
#>  7         1 Synthea synthetic … overall    overall     overall     overall     
#>  8         1 Synthea synthetic … overall    overall     overall     overall     
#>  9         1 Synthea synthetic … overall    overall     overall     overall     
#> 10         1 Synthea synthetic … overall    overall     overall     overall     
#> # ℹ 170 more rows
#> # ℹ 7 more variables: variable_name <chr>, variable_level <chr>,
#> #   estimate_name <chr>, estimate_type <chr>, estimate_value <chr>,
#> #   additional_name <chr>, additional_level <chr>
```
