Phenotype a cohort — phenotypeDiagnostics • phenotypeR
…
#> ℹ adding demographics columns
#> ℹ adding tableIntersectCount 1/1
#> ℹ summarising data
#> ✔ summariseCharacteristics finished!
#> • Running large scale characterisation
#> ℹ Summarising large scale characteristics 
#> 
#>  - getting characteristics from table condition_occurrence (1 of 6)
#>  - getting characteristics from table visit_occurrence (2 of 6)
#>  - getting characteristics from table measurement (3 of 6)
#>  - getting characteristics from table procedure_occurrence (4 of 6)
#>  - getting characteristics from table observation (5 of 6)
#>  - getting characteristics from table drug_exposure (6 of 6)
#> 
#> # A tibble: 19,362 × 13
#>    result_id cdm_name      group_name group_level strata_name strata_level
#>        <int> <chr>         <chr>      <chr>       <chr>       <chr>       
#>  1         1 mock database overall    overall     overall     overall     
#>  2         1 mock database overall    overall     overall     overall     
#>  3         1 mock database overall    overall     overall     overall     
#>  4         1 mock database overall    overall     overall     overall     
#>  5         1 mock database overall    overall     overall     overall     
#>  6         1 mock database overall    overall     overall     overall     
#>  7         1 mock database overall    overall     overall     overall     
#>  8         1 mock database overall    overall     overall     overall     
#>  9         1 mock database overall    overall     overall     overall     
#> 10         1 mock database overall    overall     overall     overall     
#> # ℹ 19,352 more rows
#> # ℹ 7 more variables: variable_name <chr>, variable_level <chr>,
#> #   estimate_name <chr>, estimate_type <chr>, estimate_value <chr>,
#> #   additional_name <chr>, additional_level <chr>
…
